PhD vs. M.S. advisor’s most recent publication: A text analysis
…
# count them by section (this is equivalent to group_by + summarize)
nonstop_counts <- ezzat_nonstop_words %>% 
  count(section, word)

# find the top 10 words by section
top_10_words <- nonstop_counts %>% 
  group_by(section) %>% 
  arrange(-n) %>% 
  slice(1:10) # keep top ten

top_10_words

## # A tibble: 40 x 3
## # Groups:   section [4]
##    section    word            n
##    <chr>      <chr>       <int>
##  1 Conclusion coral          11
##  2 Conclusion corals          9
##  3 Conclusion parrotfish      8
##  4 Conclusion fish            4
##  5 Conclusion lobata          4
##  6 Conclusion microbiomes     4
##  7 Conclusion collected       3
##  8 Conclusion colonies        3
##  9 Conclusion colony          3
## 10 Conclusion corallivory     3
## # … with 30 more rows
…
# count them by section (this is equivalent to group_by + summarize)
nonstop_counts <- he_nonstop_words %>% 
  count(section, word)

# find the top 10 words by section
top_10_words <- nonstop_counts %>% 
  group_by(section) %>% 
  arrange(-n) %>% 
  slice(1:10) # keep top ten

top_10_words

## # A tibble: 40 x 3
## # Groups:   section [4]
##    section    word           n
##    <chr>      <chr>      <int>
##  1 Conclusion carbon        40
##  2 Conclusion herbivores    26
##  3 Conclusion effects       21
##  4 Conclusion coastal       20
##  5 Conclusion cycle         18
##  6 Conclusion processes     15
##  7 Conclusion wetlands      15
##  8 Conclusion consumers     14
##  9 Conclusion soil          13
## 10 Conclusion herbivore     12
## # … with 30 more rows
…
